EESchema Schematic File Version 4
EELAYER 30 0
EELAYER END
$Descr A4 11693 8268
encoding utf-8
Sheet 1 1
Title "Boden - Voltage Level Translator"
Date "2021-04-27"
Rev "1.0"
Comp "Parkview Research Labs"
Comment1 ""
Comment2 ""
Comment3 ""
Comment4 ""
$EndDescr
$Comp
L Device:C_Small C3
U 1 1 5EBE2C22
P 4980 2920
F 0 "C3" H 5072 2966 50  0000 L CNN
F 1 "100nF" H 5072 2875 50  0000 L CNN
F 2 "Capacitor_SMD:C_0603_1608Metric" H 4980 2920 50  0001 C CNN
F 3 "~" H 4980 2920 50  0001 C CNN
F 4 "16V Ceramic" H 4980 2920 50  0001 C CNN "Description"
F 5 "YAGEO" H 4980 2920 50  0001 C CNN "MFR"
F 6 "CC0603KRX7R7BB104" H 4980 2920 50  0001 C CNN "MFR_PN"
F 7 "C108079" H 4980 2920 50  0001 C CNN "LCSC"
F 8 ".0061" H 4980 2920 50  0001 C CNN "Cost-50"
F 9 ".0049" H 4980 2920 50  0001 C CNN "Cost-500"
	1    4980 2920
	0    -1   -1   0   
$EndComp
$Comp
L Connector:Conn_01x03_Male J1
U 1 1 608786C3
P 4380 3415
F 0 "J1" H 4405 3245 50  0000 C CNN
F 1 "Low Voltage" H 4295 3630 50  0000 C CNN
F 2 "Connector_PinHeader_2.54mm:PinHeader_1x03_P2.54mm_Vertical" H 4380 3415 50  0001 C CNN
F 3 "~" H 4380 3415 50  0001 C CNN
F 4 "PINREX" H 4380 3415 50  0001 C CNN "MFR"
F 5 "210-91-03GB01" H 4380 3415 50  0001 C CNN "MFR_PN"
F 6 "C390679" H 4380 3415 50  0001 C CNN "LCSC"
F 7 ".0105" H 4380 3415 50  0001 C CNN "Cost-50"
F 8 ".008" H 4380 3415 50  0001 C CNN "Cost-500"
	1    4380 3415
	1    0    0    -1  
$EndComp
$Comp
L Logic_LevelTranslator:SN74LVC1T45DRL U1
U 1 1 6087BE3F
P 5355 3415
F 0 "U1" H 5570 3780 50  0000 L CNN
F 1 "SN74LVC1T45DRL" H 4675 3000 50  0000 L CNN
F 2 "Package_TO_SOT_SMD:SOT-563" H 5355 2965 50  0001 C CNN
F 3 "http://www.ti.com/lit/ds/symlink/sn74lvc1t45.pdf" H 4455 2765 50  0001 C CNN
F 4 "SN74LVC1T45DRL" H 5355 3415 50  0001 C CNN "MFR_PN"
F 5 "C352970" H 5355 3415 50  0001 C CNN "LCSC"
F 6 ".2526" H 5355 3415 50  0001 C CNN "Cost-10"
F 7 ".237" H 5355 3415 50  0001 C CNN "Cost-30"
F 8 ".2215" H 5355 3415 50  0001 C CNN "Cost-100"
F 9 "Texas Instruments" H 5355 3415 50  0001 C CNN "MFR"
	1    5355 3415
	1    0    0    -1  
$EndComp
$Comp
L Device:C_Small C1
U 1 1 6087EFB7
P 5945 2765
F 0 "C1" V 6015 2610 50  0000 L CNN
F 1 "10uF" V 6000 2810 50  0000 L CNN
F 2 "Capacitor_SMD:C_0805_2012Metric" H 5945 2765 50  0001 C CNN
F 3 "~" H 5945 2765 50  0001 C CNN
F 4 "16V Ceramic" H 5945 2765 50  0001 C CNN "Description"
F 5 "YAGEO" H 5945 2765 50  0001 C CNN "MFR"
F 6 "CC0603KRX5R6BB106" H 5945 2765 50  0001 C CNN "MFR_PN"
F 7 "C326057" V 5945 2765 50  0001 C CNN "LCSC"
F 8 ".0337" V 5945 2765 50  0001 C CNN "Cost-20"
F 9 ".0256" V 5945 2765 50  0001 C CNN "Cost-200"
	1    5945 2765
	0    -1   -1   0   
$EndComp
$Comp
L power:GND #PWR010
U 1 1 608801FC
P 5355 3895
F 0 "#PWR010" H 5355 3645 50  0001 C CNN
F 1 "GND" H 5360 3722 50  0000 C CNN
F 2 "" H 5355 3895 50  0001 C CNN
F 3 "" H 5355 3895 50  0001 C CNN
	1    5355 3895
	1    0    0    -1  
$EndComp
$Comp
L power:+3.3V #PWR01
U 1 1 60880B00
P 5255 2820
F 0 "#PWR01" H 5255 2670 50  0001 C CNN
F 1 "+3.3V" H 5270 2993 50  0000 C CNN
F 2 "" H 5255 2820 50  0001 C CNN
F 3 "" H 5255 2820 50  0001 C CNN
	1    5255 2820
	1    0    0    -1  
$EndComp
$Comp
L power:+5V #PWR02
U 1 1 608814F1
P 5455 2820
F 0 "#PWR02" H 5455 2670 50  0001 C CNN
F 1 "+5V" H 5470 2993 50  0000 C CNN
F 2 "" H 5455 2820 50  0001 C CNN
F 3 "" H 5455 2820 50  0001 C CNN
	1    5455 2820
	1    0    0    -1  
$EndComp
$Comp
L power:+3.3V #PWR09
U 1 1 60881B3D
P 4770 3615
F 0 "#PWR09" H 4770 3465 50  0001 C CNN
F 1 "+3.3V" H 4890 3730 50  0000 C CNN
F 2 "" H 4770 3615 50  0001 C CNN
F 3 "" H 4770 3615 50  0001 C CNN
	1    4770 3615
	1    0    0    -1  
$EndComp
Wire Wire Line
	4955 3615 4915 3615
Wire Wire Line
	4915 3615 4915 3660
Wire Wire Line
	4915 3660 4770 3660
Wire Wire Line
	4770 3660 4770 3615
Wire Wire Line
	4955 3415 4580 3415
Wire Wire Line
	5355 3815 5355 3895
$Comp
L power:GND #PWR07
U 1 1 608834B5
P 4620 3555
F 0 "#PWR07" H 4620 3305 50  0001 C CNN
F 1 "GND" H 4625 3382 50  0000 C CNN
F 2 "" H 4620 3555 50  0001 C CNN
F 3 "" H 4620 3555 50  0001 C CNN
	1    4620 3555
	1    0    0    -1  
$EndComp
Wire Wire Line
	4580 3515 4620 3515
Wire Wire Line
	4620 3515 4620 3555
$Comp
L power:GND #PWR08
U 1 1 60883E05
P 5995 3560
F 0 "#PWR08" H 5995 3310 50  0001 C CNN
F 1 "GND" H 6000 3387 50  0000 C CNN
F 2 "" H 5995 3560 50  0001 C CNN
F 3 "" H 5995 3560 50  0001 C CNN
	1    5995 3560
	1    0    0    -1  
$EndComp
Wire Wire Line
	5755 3415 6070 3415
Wire Wire Line
	6070 3515 5995 3515
Wire Wire Line
	5995 3515 5995 3560
Wire Wire Line
	4580 3315 4620 3315
Wire Wire Line
	4620 3315 4620 3190
$Comp
L power:+3.3V #PWR05
U 1 1 608863A4
P 4620 3190
F 0 "#PWR05" H 4620 3040 50  0001 C CNN
F 1 "+3.3V" H 4505 3335 50  0000 C CNN
F 2 "" H 4620 3190 50  0001 C CNN
F 3 "" H 4620 3190 50  0001 C CNN
	1    4620 3190
	1    0    0    -1  
$EndComp
Wire Wire Line
	6070 3315 6000 3315
Wire Wire Line
	6000 3315 6000 3225
$Comp
L power:+5V #PWR06
U 1 1 60886E92
P 6000 3225
F 0 "#PWR06" H 6000 3075 50  0001 C CNN
F 1 "+5V" H 6110 3270 50  0000 C CNN
F 2 "" H 6000 3225 50  0001 C CNN
F 3 "" H 6000 3225 50  0001 C CNN
	1    6000 3225
	1    0    0    -1  
$EndComp
Wire Wire Line
	5255 3015 5255 2920
Wire Wire Line
	5080 2920 5255 2920
Connection ~ 5255 2920
Wire Wire Line
	5255 2920 5255 2820
$Comp
L power:GND #PWR04
U 1 1 608890A3
P 4825 2970
F 0 "#PWR04" H 4825 2720 50  0001 C CNN
F 1 "GND" H 4830 2797 50  0000 C CNN
F 2 "" H 4825 2970 50  0001 C CNN
F 3 "" H 4825 2970 50  0001 C CNN
	1    4825 2970
	1    0    0    -1  
$EndComp
Wire Wire Line
	4825 2970 4825 2920
Wire Wire Line
	4825 2920 4880 2920
Wire Wire Line
	5455 2820 5455 2915
Wire Wire Line
	5845 2915 5735 2915
Connection ~ 5455 2915
Wire Wire Line
	5455 2915 5455 3015
Wire Wire Line
	5845 2765 5735 2765
Wire Wire Line
	5735 2765 5735 2915
Connection ~ 5735 2915
Wire Wire Line
	5735 2915 5455 2915
Wire Wire Line
	6045 2915 6180 2915
Wire Wire Line
	6180 2915 6180 2960
Wire Wire Line
	6045 2765 6180 2765
Wire Wire Line
	6180 2765 6180 2915
Connection ~ 6180 2915
$Comp
L power:GND #PWR03
U 1 1 6088D54F
P 6180 2960
F 0 "#PWR03" H 6180 2710 50  0001 C CNN
F 1 "GND" H 6290 2865 50  0000 C CNN
F 2 "" H 6180 2960 50  0001 C CNN
F 3 "" H 6180 2960 50  0001 C CNN
	1    6180 2960
	1    0    0    -1  
$EndComp
$Comp
L Connector:Conn_01x03_Male J2
U 1 1 60878EB5
P 6270 3415
F 0 "J2" H 6400 3235 50  0000 R CNN
F 1 "High Voltage" H 6360 3605 50  0000 R CNN
F 2 "Connector_PinHeader_2.54mm:PinHeader_1x03_P2.54mm_Vertical" H 6270 3415 50  0001 C CNN
F 3 "~" H 6270 3415 50  0001 C CNN
F 4 "PINREX" H 6270 3415 50  0001 C CNN "MFR"
F 5 "210-91-03GB01" H 6270 3415 50  0001 C CNN "MFR_PN"
F 6 "C390679" H 6270 3415 50  0001 C CNN "LCSC"
F 7 ".0105" H 6270 3415 50  0001 C CNN "Cost-50"
F 8 ".008" H 6270 3415 50  0001 C CNN "Cost-500"
	1    6270 3415
	-1   0    0    -1  
$EndComp
Text Notes 4065 3340 0    50   ~ 0
3.3V In
Text Notes 3855 3445 0    50   ~ 0
3.3V Data In
Text Notes 4180 3545 0    50   ~ 0
GND
Text Notes 6305 3550 0    50   ~ 0
GND
Text Notes 6305 3450 0    50   ~ 0
5V Data Out
Text Notes 6305 3350 0    50   ~ 0
5.5V In
$Comp
L Device:C_Small C2
U 1 1 608A0D23
P 5945 2915
F 0 "C2" H 6037 2961 50  0000 L CNN
F 1 "100nF" H 6037 2870 50  0000 L CNN
F 2 "Capacitor_SMD:C_0603_1608Metric" H 5945 2915 50  0001 C CNN
F 3 "~" H 5945 2915 50  0001 C CNN
F 4 "16V Ceramic" H 5945 2915 50  0001 C CNN "Description"
F 5 "YAGEO" H 5945 2915 50  0001 C CNN "MFR"
F 6 "CC0603KRX7R7BB104" H 5945 2915 50  0001 C CNN "MFR_PN"
F 7 "C108079" H 5945 2915 50  0001 C CNN "LCSC"
F 8 ".0061" H 5945 2915 50  0001 C CNN "Cost-50"
F 9 ".0049" H 5945 2915 50  0001 C CNN "Cost-500"
	1    5945 2915
	0    -1   -1   0   
$EndComp
$EndSCHEMATC
